<?xml version="1.0" encoding="UTF-8" standalone="no"?>
<svg
   xmlns:dc="http://purl.org/dc/elements/1.1/"
   xmlns:cc="http://creativecommons.org/ns#"
   xmlns:rdf="http://www.w3.org/1999/02/22-rdf-syntax-ns#"
   xmlns:svg="http://www.w3.org/2000/svg"
   xmlns="http://www.w3.org/2000/svg"
   style="enable-background:new"
   viewBox="0 0 74.614829 74.61483"
   height="74.61483"
   width="74.61483"
   id="svg3753"
   version="1.1">
  <metadata
     id="metadata3759">
    <rdf:RDF>
      <cc:Work
         rdf:about="">
        <dc:format>image/svg+xml</dc:format>
        <dc:type
           rdf:resource="http://purl.org/dc/dcmitype/StillImage" />
        <dc:title></dc:title>
      </cc:Work>
    </rdf:RDF>
  </metadata>
  <defs
     id="defs3757" />
  <g
     transform="translate(-54.01501,-76.237721)"
     style="display:inline"
     id="layer1">
    <path
       id="path4180"
       d=""
       style="opacity:1;fill:#000000;fill-rule:evenodd;stroke-width:1.85555124;stroke-linejoin:round" />
    <path
       id="path4184"
       d=""
       style="opacity:1;fill:#000000;fill-rule:evenodd;stroke-width:1.85555124;stroke-linejoin:round" />
    <path
       id="path4186"
       d=""
       style="opacity:1;fill:#000000;fill-rule:evenodd;stroke-width:1.85555124;stroke-linejoin:round" />
    <path
       id="path4188"
       d=""
       style="opacity:1;fill:#000000;fill-rule:evenodd;stroke-width:1.85555124;stroke-linejoin:round" />
    <path
       id="path4190"
       d=""
       style="opacity:1;fill:#000000;fill-rule:evenodd;stroke-width:1.85555124;stroke-linejoin:round" />
    <path
       id="path4192"
       d=""
       style="opacity:1;fill:#000000;fill-rule:evenodd;stroke-width:1.85555124;stroke-linejoin:round" />
    <path
       id="path4194"
       d=""
       style="opacity:1;fill:#000000;fill-rule:evenodd;stroke-width:1.85555124;stroke-linejoin:round" />
    <path
       id="path4196"
       d=""
       style="opacity:1;fill:#000000;fill-rule:evenodd;stroke-width:1.85555124;stroke-linejoin:round" />
    <path
       id="path4198"
       d=""
       style="opacity:1;fill:#000000;fill-rule:evenodd;stroke-width:1.85555124;stroke-linejoin:round" />
    <path
       id="path4200"
       d=""
       style="opacity:1;fill:#000000;fill-rule:evenodd;stroke-width:2.62414575;stroke-linejoin:round" />
    <path
       id="path4202"
       d=""
       style="opacity:1;fill:#000000;fill-rule:evenodd;stroke-width:2.62414575;stroke-linejoin:round" />
    <circle
       r="37.307415"
       cy="101.79332"
       cx="-83.511742"
       id="path4424"
       style="opacity:1;fill:#3b7080;fill-opacity:1;fill-rule:evenodd;stroke:none;stroke-width:0.60722333;stroke-linejoin:round;stroke-miterlimit:4;stroke-dasharray:none;stroke-opacity:1" />
    <path
       id="path3776"
       d="m 68.638945,117.05242 c 1.98358,-13.87869 1.98358,-13.87869 1.98358,-13.87869 l -1.63259,-3.14908 2.15801,-6.356134 2.56623,-6.297789 8.22267,-5.0728 9.91339,0.58377 9.505035,3.44117 4.48978,6.473188 8.22189,6.590052 2.1569,11.138183 -0.5834,4.08197 -4.54888,5.59789 -0.2328,-7.11437 -9.50502,-3.44117 -3.8e-4,5.83144 -7.581655,12.24552 -4.1994,11.89586 -8.33934,5.88921 -4.95575,-14.87049 z"
       style="fill:#f2f2f2;fill-opacity:1;fill-rule:evenodd;stroke:none;stroke-width:1px;stroke-linecap:butt;stroke-linejoin:miter;stroke-opacity:1;" />
  </g>
  <g
     transform="translate(-54.01501,-76.237721)"
     style="display:none"
     id="layer2" />
</svg>
